<?xml version="1.0" encoding="utf-8" standalone="no"?>
<!DOCTYPE svg PUBLIC "-//W3C//DTD SVG 1.1//EN"
  "http://www.w3.org/Graphics/SVG/1.1/DTD/svg11.dtd">
<!-- Created with matplotlib (http://matplotlib.org/) -->
<svg height="477.738042pt" version="1.1" viewBox="0 0 914.935987 477.738042" width="914.935987pt" xmlns="http://www.w3.org/2000/svg" xmlns:xlink="http://www.w3.org/1999/xlink">
 <defs>
  <style type="text/css">
*{stroke-linecap:butt;stroke-linejoin:round;}
  </style>
 </defs>
 <g id="figure_1">
  <g id="patch_1">
   <path d="M 0 477.738042 
L 914.935987 477.738042 
L 914.935987 0 
L 0 0 
z
" style="fill:#ffffff;"/>
  </g>
  <g id="axes_1">
   <g id="patch_2">
    <path d="M 57.5232 333.98986 
L 437.977745 333.98986 
L 437.977745 12.771678 
L 57.5232 12.771678 
z
" style="fill:#ffffff;"/>
   </g>
   <g id="matplotlib.axis_1">
    <g id="xtick_1">
     <g id="line2d_1">
      <defs>
       <path d="M 0 0 
L 0 4.8 
" id="mf95a2003b5" style="stroke:#262626;"/>
      </defs>
      <g>
       <use style="fill:#262626;stroke:#262626;" x="57.5232" xlink:href="#mf95a2003b5" y="333.98986"/>
      </g>
     </g>
     <g id="text_1">
      <!-- 1 -->
      <defs>
       <path d="M 37.25 0 
L 28.46875 0 
L 28.46875 56 
Q 25.296875 52.984375 20.140625 49.953125 
Q 14.984375 46.921875 10.890625 45.40625 
L 10.890625 53.90625 
Q 18.265625 57.375 23.78125 62.296875 
Q 29.296875 67.234375 31.59375 71.875 
L 37.25 71.875 
z
" id="ArialMT-31"/>
      </defs>
      <g style="fill:#262626;" transform="translate(53.118938 353.627835)scale(0.1584 -0.1584)">
       <use xlink:href="#ArialMT-31"/>
      </g>
     </g>
    </g>
    <g id="xtick_2">
     <g id="line2d_2">
      <g>
       <use style="fill:#262626;stroke:#262626;" x="182.639124" xlink:href="#mf95a2003b5" y="333.98986"/>
      </g>
     </g>
     <g id="text_2">
      <!-- 50 -->
      <defs>
       <path d="M 4.15625 18.75 
L 13.375 19.53125 
Q 14.40625 12.796875 18.140625 9.390625 
Q 21.875 6 27.15625 6 
Q 33.5 6 37.890625 10.78125 
Q 42.28125 15.578125 42.28125 23.484375 
Q 42.28125 31 38.0625 35.34375 
Q 33.84375 39.703125 27 39.703125 
Q 22.75 39.703125 19.328125 37.765625 
Q 15.921875 35.84375 13.96875 32.765625 
L 5.71875 33.84375 
L 12.640625 70.609375 
L 48.25 70.609375 
L 48.25 62.203125 
L 19.671875 62.203125 
L 15.828125 42.96875 
Q 22.265625 47.46875 29.34375 47.46875 
Q 38.71875 47.46875 45.15625 40.96875 
Q 51.609375 34.46875 51.609375 24.265625 
Q 51.609375 14.546875 45.953125 7.46875 
Q 39.0625 -1.21875 27.15625 -1.21875 
Q 17.390625 -1.21875 11.203125 4.25 
Q 5.03125 9.71875 4.15625 18.75 
z
" id="ArialMT-35"/>
       <path d="M 4.15625 35.296875 
Q 4.15625 48 6.765625 55.734375 
Q 9.375 63.484375 14.515625 67.671875 
Q 19.671875 71.875 27.484375 71.875 
Q 33.25 71.875 37.59375 69.546875 
Q 41.9375 67.234375 44.765625 62.859375 
Q 47.609375 58.5 49.21875 52.21875 
Q 50.828125 45.953125 50.828125 35.296875 
Q 50.828125 22.703125 48.234375 14.96875 
Q 45.65625 7.234375 40.5 3 
Q 35.359375 -1.21875 27.484375 -1.21875 
Q 17.140625 -1.21875 11.234375 6.203125 
Q 4.15625 15.140625 4.15625 35.296875 
z
M 13.1875 35.296875 
Q 13.1875 17.671875 17.3125 11.828125 
Q 21.4375 6 27.484375 6 
Q 33.546875 6 37.671875 11.859375 
Q 41.796875 17.71875 41.796875 35.296875 
Q 41.796875 52.984375 37.671875 58.78125 
Q 33.546875 64.59375 27.390625 64.59375 
Q 21.34375 64.59375 17.71875 59.46875 
Q 13.1875 52.9375 13.1875 35.296875 
z
" id="ArialMT-30"/>
      </defs>
      <g style="fill:#262626;" transform="translate(173.830599 353.627835)scale(0.1584 -0.1584)">
       <use xlink:href="#ArialMT-35"/>
       <use x="55.615234" xlink:href="#ArialMT-30"/>
      </g>
     </g>
    </g>
    <g id="xtick_3">
     <g id="line2d_3">
      <g>
       <use style="fill:#262626;stroke:#262626;" x="310.308435" xlink:href="#mf95a2003b5" y="333.98986"/>
      </g>
     </g>
     <g id="text_3">
      <!-- 100 -->
      <g style="fill:#262626;" transform="translate(297.095647 353.627835)scale(0.1584 -0.1584)">
       <use xlink:href="#ArialMT-31"/>
       <use x="55.615234" xlink:href="#ArialMT-30"/>
       <use x="111.230469" xlink:href="#ArialMT-30"/>
      </g>
     </g>
    </g>
    <g id="xtick_4">
     <g id="line2d_4">
      <g>
       <use style="fill:#262626;stroke:#262626;" x="437.977745" xlink:href="#mf95a2003b5" y="333.98986"/>
      </g>
     </g>
     <g id="text_4">
      <!-- 150 -->
      <g style="fill:#262626;" transform="translate(424.764958 353.627835)scale(0.1584 -0.1584)">
       <use xlink:href="#ArialMT-31"/>
       <use x="55.615234" xlink:href="#ArialMT-35"/>
       <use x="111.230469" xlink:href="#ArialMT-30"/>
      </g>
     </g>
    </g>
    <g id="text_5">
     <!-- Number of components -->
     <defs>
      <path d="M 7.625 0 
L 7.625 71.578125 
L 17.328125 71.578125 
L 54.9375 15.375 
L 54.9375 71.578125 
L 64.015625 71.578125 
L 64.015625 0 
L 54.296875 0 
L 16.703125 56.25 
L 16.703125 0 
z
" id="ArialMT-4e"/>
      <path d="M 40.578125 0 
L 40.578125 7.625 
Q 34.515625 -1.171875 24.125 -1.171875 
Q 19.53125 -1.171875 15.546875 0.578125 
Q 11.578125 2.34375 9.640625 5 
Q 7.71875 7.671875 6.9375 11.53125 
Q 6.390625 14.109375 6.390625 19.734375 
L 6.390625 51.859375 
L 15.1875 51.859375 
L 15.1875 23.09375 
Q 15.1875 16.21875 15.71875 13.8125 
Q 16.546875 10.359375 19.234375 8.375 
Q 21.921875 6.390625 25.875 6.390625 
Q 29.828125 6.390625 33.296875 8.421875 
Q 36.765625 10.453125 38.203125 13.9375 
Q 39.65625 17.4375 39.65625 24.078125 
L 39.65625 51.859375 
L 48.4375 51.859375 
L 48.4375 0 
z
" id="ArialMT-75"/>
      <path d="M 6.59375 0 
L 6.59375 51.859375 
L 14.453125 51.859375 
L 14.453125 44.578125 
Q 16.890625 48.390625 20.9375 50.703125 
Q 25 53.03125 30.171875 53.03125 
Q 35.9375 53.03125 39.625 50.640625 
Q 43.3125 48.25 44.828125 43.953125 
Q 50.984375 53.03125 60.84375 53.03125 
Q 68.5625 53.03125 72.703125 48.75 
Q 76.859375 44.484375 76.859375 35.59375 
L 76.859375 0 
L 68.109375 0 
L 68.109375 32.671875 
Q 68.109375 37.9375 67.25 40.25 
Q 66.40625 42.578125 64.15625 43.984375 
Q 61.921875 45.40625 58.890625 45.40625 
Q 53.421875 45.40625 49.796875 41.765625 
Q 46.1875 38.140625 46.1875 30.125 
L 46.1875 0 
L 37.40625 0 
L 37.40625 33.6875 
Q 37.40625 39.546875 35.25 42.46875 
Q 33.109375 45.40625 28.21875 45.40625 
Q 24.515625 45.40625 21.359375 43.453125 
Q 18.21875 41.5 16.796875 37.734375 
Q 15.375 33.984375 15.375 26.90625 
L 15.375 0 
z
" id="ArialMT-6d"/>
      <path d="M 14.703125 0 
L 6.546875 0 
L 6.546875 71.578125 
L 15.328125 71.578125 
L 15.328125 46.046875 
Q 20.90625 53.03125 29.546875 53.03125 
Q 34.328125 53.03125 38.59375 51.09375 
Q 42.875 49.171875 45.625 45.671875 
Q 48.390625 42.1875 49.953125 37.25 
Q 51.515625 32.328125 51.515625 26.703125 
Q 51.515625 13.375 44.921875 6.09375 
Q 38.328125 -1.171875 29.109375 -1.171875 
Q 19.921875 -1.171875 14.703125 6.5 
z
M 14.59375 26.3125 
Q 14.59375 17 17.140625 12.84375 
Q 21.296875 6.0625 28.375 6.0625 
Q 34.125 6.0625 38.328125 11.0625 
Q 42.53125 16.0625 42.53125 25.984375 
Q 42.53125 36.140625 38.5 40.96875 
Q 34.46875 45.796875 28.765625 45.796875 
Q 23 45.796875 18.796875 40.796875 
Q 14.59375 35.796875 14.59375 26.3125 
z
" id="ArialMT-62"/>
      <path d="M 42.09375 16.703125 
L 51.171875 15.578125 
Q 49.03125 7.625 43.21875 3.21875 
Q 37.40625 -1.171875 28.375 -1.171875 
Q 17 -1.171875 10.328125 5.828125 
Q 3.65625 12.84375 3.65625 25.484375 
Q 3.65625 38.578125 10.390625 45.796875 
Q 17.140625 53.03125 27.875 53.03125 
Q 38.28125 53.03125 44.875 45.953125 
Q 51.46875 38.875 51.46875 26.03125 
Q 51.46875 25.25 51.421875 23.6875 
L 12.75 23.6875 
Q 13.234375 15.140625 17.578125 10.59375 
Q 21.921875 6.0625 28.421875 6.0625 
Q 33.25 6.0625 36.671875 8.59375 
Q 40.09375 11.140625 42.09375 16.703125 
z
M 13.234375 30.90625 
L 42.1875 30.90625 
Q 41.609375 37.453125 38.875 40.71875 
Q 34.671875 45.796875 27.984375 45.796875 
Q 21.921875 45.796875 17.796875 41.75 
Q 13.671875 37.703125 13.234375 30.90625 
z
" id="ArialMT-65"/>
      <path d="M 6.5 0 
L 6.5 51.859375 
L 14.40625 51.859375 
L 14.40625 44 
Q 17.4375 49.515625 20 51.265625 
Q 22.5625 53.03125 25.640625 53.03125 
Q 30.078125 53.03125 34.671875 50.203125 
L 31.640625 42.046875 
Q 28.421875 43.953125 25.203125 43.953125 
Q 22.3125 43.953125 20.015625 42.21875 
Q 17.71875 40.484375 16.75 37.40625 
Q 15.28125 32.71875 15.28125 27.15625 
L 15.28125 0 
z
" id="ArialMT-72"/>
      <path id="ArialMT-20"/>
      <path d="M 3.328125 25.921875 
Q 3.328125 40.328125 11.328125 47.265625 
Q 18.015625 53.03125 27.640625 53.03125 
Q 38.328125 53.03125 45.109375 46.015625 
Q 51.90625 39.015625 51.90625 26.65625 
Q 51.90625 16.65625 48.90625 10.90625 
Q 45.90625 5.171875 40.15625 2 
Q 34.421875 -1.171875 27.640625 -1.171875 
Q 16.75 -1.171875 10.03125 5.8125 
Q 3.328125 12.796875 3.328125 25.921875 
z
M 12.359375 25.921875 
Q 12.359375 15.96875 16.703125 11.015625 
Q 21.046875 6.0625 27.640625 6.0625 
Q 34.1875 6.0625 38.53125 11.03125 
Q 42.875 16.015625 42.875 26.21875 
Q 42.875 35.84375 38.5 40.796875 
Q 34.125 45.75 27.640625 45.75 
Q 21.046875 45.75 16.703125 40.8125 
Q 12.359375 35.890625 12.359375 25.921875 
z
" id="ArialMT-6f"/>
      <path d="M 8.6875 0 
L 8.6875 45.015625 
L 0.921875 45.015625 
L 0.921875 51.859375 
L 8.6875 51.859375 
L 8.6875 57.375 
Q 8.6875 62.59375 9.625 65.140625 
Q 10.890625 68.5625 14.078125 70.671875 
Q 17.28125 72.796875 23.046875 72.796875 
Q 26.765625 72.796875 31.25 71.921875 
L 29.9375 64.265625 
Q 27.203125 64.75 24.75 64.75 
Q 20.75 64.75 19.09375 63.03125 
Q 17.4375 61.328125 17.4375 56.640625 
L 17.4375 51.859375 
L 27.546875 51.859375 
L 27.546875 45.015625 
L 17.4375 45.015625 
L 17.4375 0 
z
" id="ArialMT-66"/>
      <path d="M 40.4375 19 
L 49.078125 17.875 
Q 47.65625 8.9375 41.8125 3.875 
Q 35.984375 -1.171875 27.484375 -1.171875 
Q 16.84375 -1.171875 10.375 5.78125 
Q 3.90625 12.75 3.90625 25.734375 
Q 3.90625 34.125 6.6875 40.421875 
Q 9.46875 46.734375 15.15625 49.875 
Q 20.84375 53.03125 27.546875 53.03125 
Q 35.984375 53.03125 41.359375 48.75 
Q 46.734375 44.484375 48.25 36.625 
L 39.703125 35.296875 
Q 38.484375 40.53125 35.375 43.15625 
Q 32.28125 45.796875 27.875 45.796875 
Q 21.234375 45.796875 17.078125 41.03125 
Q 12.9375 36.28125 12.9375 25.984375 
Q 12.9375 15.53125 16.9375 10.796875 
Q 20.953125 6.0625 27.390625 6.0625 
Q 32.5625 6.0625 36.03125 9.234375 
Q 39.5 12.40625 40.4375 19 
z
" id="ArialMT-63"/>
      <path d="M 6.59375 -19.875 
L 6.59375 51.859375 
L 14.59375 51.859375 
L 14.59375 45.125 
Q 17.4375 49.078125 21 51.046875 
Q 24.5625 53.03125 29.640625 53.03125 
Q 36.28125 53.03125 41.359375 49.609375 
Q 46.4375 46.1875 49.015625 39.953125 
Q 51.609375 33.734375 51.609375 26.3125 
Q 51.609375 18.359375 48.75 11.984375 
Q 45.90625 5.609375 40.453125 2.21875 
Q 35.015625 -1.171875 29 -1.171875 
Q 24.609375 -1.171875 21.109375 0.6875 
Q 17.625 2.546875 15.375 5.375 
L 15.375 -19.875 
z
M 14.546875 25.640625 
Q 14.546875 15.625 18.59375 10.84375 
Q 22.65625 6.0625 28.421875 6.0625 
Q 34.28125 6.0625 38.453125 11.015625 
Q 42.625 15.96875 42.625 26.375 
Q 42.625 36.28125 38.546875 41.203125 
Q 34.46875 46.140625 28.8125 46.140625 
Q 23.1875 46.140625 18.859375 40.890625 
Q 14.546875 35.640625 14.546875 25.640625 
z
" id="ArialMT-70"/>
      <path d="M 6.59375 0 
L 6.59375 51.859375 
L 14.5 51.859375 
L 14.5 44.484375 
Q 20.21875 53.03125 31 53.03125 
Q 35.6875 53.03125 39.625 51.34375 
Q 43.5625 49.65625 45.515625 46.921875 
Q 47.46875 44.1875 48.25 40.4375 
Q 48.734375 37.984375 48.734375 31.890625 
L 48.734375 0 
L 39.9375 0 
L 39.9375 31.546875 
Q 39.9375 36.921875 38.90625 39.578125 
Q 37.890625 42.234375 35.28125 43.8125 
Q 32.671875 45.40625 29.15625 45.40625 
Q 23.53125 45.40625 19.453125 41.84375 
Q 15.375 38.28125 15.375 28.328125 
L 15.375 0 
z
" id="ArialMT-6e"/>
      <path d="M 25.78125 7.859375 
L 27.046875 0.09375 
Q 23.34375 -0.6875 20.40625 -0.6875 
Q 15.625 -0.6875 12.984375 0.828125 
Q 10.359375 2.34375 9.28125 4.8125 
Q 8.203125 7.28125 8.203125 15.1875 
L 8.203125 45.015625 
L 1.765625 45.015625 
L 1.765625 51.859375 
L 8.203125 51.859375 
L 8.203125 64.703125 
L 16.9375 69.96875 
L 16.9375 51.859375 
L 25.78125 51.859375 
L 25.78125 45.015625 
L 16.9375 45.015625 
L 16.9375 14.703125 
Q 16.9375 10.9375 17.40625 9.859375 
Q 17.875 8.796875 18.921875 8.15625 
Q 19.96875 7.515625 21.921875 7.515625 
Q 23.390625 7.515625 25.78125 7.859375 
z
" id="ArialMT-74"/>
      <path d="M 3.078125 15.484375 
L 11.765625 16.84375 
Q 12.5 11.625 15.84375 8.84375 
Q 19.1875 6.0625 25.203125 6.0625 
Q 31.25 6.0625 34.171875 8.515625 
Q 37.109375 10.984375 37.109375 14.3125 
Q 37.109375 17.28125 34.515625 19 
Q 32.71875 20.171875 25.53125 21.96875 
Q 15.875 24.421875 12.140625 26.203125 
Q 8.40625 27.984375 6.46875 31.125 
Q 4.546875 34.28125 4.546875 38.09375 
Q 4.546875 41.546875 6.125 44.5 
Q 7.71875 47.46875 10.453125 49.421875 
Q 12.5 50.921875 16.03125 51.96875 
Q 19.578125 53.03125 23.640625 53.03125 
Q 29.734375 53.03125 34.34375 51.265625 
Q 38.96875 49.515625 41.15625 46.5 
Q 43.359375 43.5 44.1875 38.484375 
L 35.59375 37.3125 
Q 35.015625 41.3125 32.203125 43.546875 
Q 29.390625 45.796875 24.265625 45.796875 
Q 18.21875 45.796875 15.625 43.796875 
Q 13.03125 41.796875 13.03125 39.109375 
Q 13.03125 37.40625 14.109375 36.03125 
Q 15.1875 34.625 17.484375 33.6875 
Q 18.796875 33.203125 25.25 31.453125 
Q 34.578125 28.953125 38.25 27.359375 
Q 41.9375 25.78125 44.03125 22.75 
Q 46.140625 19.734375 46.140625 15.234375 
Q 46.140625 10.84375 43.578125 6.953125 
Q 41.015625 3.078125 36.171875 0.953125 
Q 31.34375 -1.171875 25.25 -1.171875 
Q 15.140625 -1.171875 9.84375 3.03125 
Q 4.546875 7.234375 3.078125 15.484375 
z
" id="ArialMT-73"/>
     </defs>
     <g style="fill:#262626;" transform="translate(157.952523 373.355335)scale(0.1728 -0.1728)">
      <use xlink:href="#ArialMT-4e"/>
      <use x="72.216797" xlink:href="#ArialMT-75"/>
      <use x="127.832031" xlink:href="#ArialMT-6d"/>
      <use x="211.132812" xlink:href="#ArialMT-62"/>
      <use x="266.748047" xlink:href="#ArialMT-65"/>
      <use x="322.363281" xlink:href="#ArialMT-72"/>
      <use x="355.664062" xlink:href="#ArialMT-20"/>
      <use x="383.447266" xlink:href="#ArialMT-6f"/>
      <use x="439.0625" xlink:href="#ArialMT-66"/>
      <use x="466.845703" xlink:href="#ArialMT-20"/>
      <use x="494.628906" xlink:href="#ArialMT-63"/>
      <use x="544.628906" xlink:href="#ArialMT-6f"/>
      <use x="600.244141" xlink:href="#ArialMT-6d"/>
      <use x="683.544922" xlink:href="#ArialMT-70"/>
      <use x="739.160156" xlink:href="#ArialMT-6f"/>
      <use x="794.775391" xlink:href="#ArialMT-6e"/>
      <use x="850.390625" xlink:href="#ArialMT-65"/>
      <use x="906.005859" xlink:href="#ArialMT-6e"/>
      <use x="961.621094" xlink:href="#ArialMT-74"/>
      <use x="989.404297" xlink:href="#ArialMT-73"/>
     </g>
    </g>
   </g>
   <g id="matplotlib.axis_2">
    <g id="ytick_1">
     <g id="line2d_5">
      <defs>
       <path d="M 0 0 
L -4.8 0 
" id="m3a1950371c" style="stroke:#262626;"/>
      </defs>
      <g>
       <use style="fill:#262626;stroke:#262626;" x="57.5232" xlink:href="#m3a1950371c" y="333.98986"/>
      </g>
     </g>
     <g id="text_6">
      <!-- 0.0 -->
      <defs>
       <path d="M 9.078125 0 
L 9.078125 10.015625 
L 19.09375 10.015625 
L 19.09375 0 
z
" id="ArialMT-2e"/>
      </defs>
      <g style="fill:#262626;" transform="translate(27.2056 339.658847)scale(0.1584 -0.1584)">
       <use xlink:href="#ArialMT-30"/>
       <use x="55.615234" xlink:href="#ArialMT-2e"/>
       <use x="83.398438" xlink:href="#ArialMT-30"/>
      </g>
     </g>
    </g>
    <g id="ytick_2">
     <g id="line2d_6">
      <g>
       <use style="fill:#262626;stroke:#262626;" x="57.5232" xlink:href="#m3a1950371c" y="266.028858"/>
      </g>
     </g>
     <g id="text_7">
      <!-- 0.2 -->
      <defs>
       <path d="M 50.34375 8.453125 
L 50.34375 0 
L 3.03125 0 
Q 2.9375 3.171875 4.046875 6.109375 
Q 5.859375 10.9375 9.828125 15.625 
Q 13.8125 20.3125 21.34375 26.46875 
Q 33.015625 36.03125 37.109375 41.625 
Q 41.21875 47.21875 41.21875 52.203125 
Q 41.21875 57.421875 37.46875 61 
Q 33.734375 64.59375 27.734375 64.59375 
Q 21.390625 64.59375 17.578125 60.78125 
Q 13.765625 56.984375 13.71875 50.25 
L 4.6875 51.171875 
Q 5.609375 61.28125 11.65625 66.578125 
Q 17.71875 71.875 27.9375 71.875 
Q 38.234375 71.875 44.234375 66.15625 
Q 50.25 60.453125 50.25 52 
Q 50.25 47.703125 48.484375 43.546875 
Q 46.734375 39.40625 42.65625 34.8125 
Q 38.578125 30.21875 29.109375 22.21875 
Q 21.1875 15.578125 18.9375 13.203125 
Q 16.703125 10.84375 15.234375 8.453125 
z
" id="ArialMT-32"/>
      </defs>
      <g style="fill:#262626;" transform="translate(27.2056 271.697845)scale(0.1584 -0.1584)">
       <use xlink:href="#ArialMT-30"/>
       <use x="55.615234" xlink:href="#ArialMT-2e"/>
       <use x="83.398438" xlink:href="#ArialMT-32"/>
      </g>
     </g>
    </g>
    <g id="ytick_3">
     <g id="line2d_7">
      <g>
       <use style="fill:#262626;stroke:#262626;" x="57.5232" xlink:href="#m3a1950371c" y="198.067856"/>
      </g>
     </g>
     <g id="text_8">
      <!-- 0.4 -->
      <defs>
       <path d="M 32.328125 0 
L 32.328125 17.140625 
L 1.265625 17.140625 
L 1.265625 25.203125 
L 33.9375 71.578125 
L 41.109375 71.578125 
L 41.109375 25.203125 
L 50.78125 25.203125 
L 50.78125 17.140625 
L 41.109375 17.140625 
L 41.109375 0 
z
M 32.328125 25.203125 
L 32.328125 57.46875 
L 9.90625 25.203125 
z
" id="ArialMT-34"/>
      </defs>
      <g style="fill:#262626;" transform="translate(27.2056 203.736843)scale(0.1584 -0.1584)">
       <use xlink:href="#ArialMT-30"/>
       <use x="55.615234" xlink:href="#ArialMT-2e"/>
       <use x="83.398438" xlink:href="#ArialMT-34"/>
      </g>
     </g>
    </g>
    <g id="ytick_4">
     <g id="line2d_8">
      <g>
       <use style="fill:#262626;stroke:#262626;" x="57.5232" xlink:href="#m3a1950371c" y="130.106854"/>
      </g>
     </g>
     <g id="text_9">
      <!-- 0.6 -->
      <defs>
       <path d="M 49.75 54.046875 
L 41.015625 53.375 
Q 39.84375 58.546875 37.703125 60.890625 
Q 34.125 64.65625 28.90625 64.65625 
Q 24.703125 64.65625 21.53125 62.3125 
Q 17.390625 59.28125 14.984375 53.46875 
Q 12.59375 47.65625 12.5 36.921875 
Q 15.671875 41.75 20.265625 44.09375 
Q 24.859375 46.4375 29.890625 46.4375 
Q 38.671875 46.4375 44.84375 39.96875 
Q 51.03125 33.5 51.03125 23.25 
Q 51.03125 16.5 48.125 10.71875 
Q 45.21875 4.9375 40.140625 1.859375 
Q 35.0625 -1.21875 28.609375 -1.21875 
Q 17.625 -1.21875 10.6875 6.859375 
Q 3.765625 14.9375 3.765625 33.5 
Q 3.765625 54.25 11.421875 63.671875 
Q 18.109375 71.875 29.4375 71.875 
Q 37.890625 71.875 43.28125 67.140625 
Q 48.6875 62.40625 49.75 54.046875 
z
M 13.875 23.1875 
Q 13.875 18.65625 15.796875 14.5 
Q 17.71875 10.359375 21.1875 8.171875 
Q 24.65625 6 28.46875 6 
Q 34.03125 6 38.03125 10.484375 
Q 42.046875 14.984375 42.046875 22.703125 
Q 42.046875 30.125 38.078125 34.390625 
Q 34.125 38.671875 28.125 38.671875 
Q 22.171875 38.671875 18.015625 34.390625 
Q 13.875 30.125 13.875 23.1875 
z
" id="ArialMT-36"/>
      </defs>
      <g style="fill:#262626;" transform="translate(27.2056 135.775841)scale(0.1584 -0.1584)">
       <use xlink:href="#ArialMT-30"/>
       <use x="55.615234" xlink:href="#ArialMT-2e"/>
       <use x="83.398438" xlink:href="#ArialMT-36"/>
      </g>
     </g>
    </g>
    <g id="ytick_5">
     <g id="line2d_9">
      <g>
       <use style="fill:#262626;stroke:#262626;" x="57.5232" xlink:href="#m3a1950371c" y="62.145852"/>
      </g>
     </g>
     <g id="text_10">
      <!-- 0.8 -->
      <defs>
       <path d="M 17.671875 38.8125 
Q 12.203125 40.828125 9.5625 44.53125 
Q 6.9375 48.25 6.9375 53.421875 
Q 6.9375 61.234375 12.546875 66.546875 
Q 18.171875 71.875 27.484375 71.875 
Q 36.859375 71.875 42.578125 66.421875 
Q 48.296875 60.984375 48.296875 53.171875 
Q 48.296875 48.1875 45.671875 44.5 
Q 43.0625 40.828125 37.75 38.8125 
Q 44.34375 36.671875 47.78125 31.875 
Q 51.21875 27.09375 51.21875 20.453125 
Q 51.21875 11.28125 44.71875 5.03125 
Q 38.234375 -1.21875 27.640625 -1.21875 
Q 17.046875 -1.21875 10.546875 5.046875 
Q 4.046875 11.328125 4.046875 20.703125 
Q 4.046875 27.6875 7.59375 32.390625 
Q 11.140625 37.109375 17.671875 38.8125 
z
M 15.921875 53.71875 
Q 15.921875 48.640625 19.1875 45.40625 
Q 22.46875 42.1875 27.6875 42.1875 
Q 32.765625 42.1875 36.015625 45.375 
Q 39.265625 48.578125 39.265625 53.21875 
Q 39.265625 58.0625 35.90625 61.359375 
Q 32.5625 64.65625 27.59375 64.65625 
Q 22.5625 64.65625 19.234375 61.421875 
Q 15.921875 58.203125 15.921875 53.71875 
z
M 13.09375 20.65625 
Q 13.09375 16.890625 14.875 13.375 
Q 16.65625 9.859375 20.171875 7.921875 
Q 23.6875 6 27.734375 6 
Q 34.03125 6 38.125 10.046875 
Q 42.234375 14.109375 42.234375 20.359375 
Q 42.234375 26.703125 38.015625 30.859375 
Q 33.796875 35.015625 27.4375 35.015625 
Q 21.234375 35.015625 17.15625 30.90625 
Q 13.09375 26.8125 13.09375 20.65625 
z
" id="ArialMT-38"/>
      </defs>
      <g style="fill:#262626;" transform="translate(27.2056 67.814839)scale(0.1584 -0.1584)">
       <use xlink:href="#ArialMT-30"/>
       <use x="55.615234" xlink:href="#ArialMT-2e"/>
       <use x="83.398438" xlink:href="#ArialMT-38"/>
      </g>
     </g>
    </g>
    <g id="text_11">
     <!-- Training accuracy -->
     <defs>
      <path d="M 25.921875 0 
L 25.921875 63.140625 
L 2.34375 63.140625 
L 2.34375 71.578125 
L 59.078125 71.578125 
L 59.078125 63.140625 
L 35.40625 63.140625 
L 35.40625 0 
z
" id="ArialMT-54"/>
      <path d="M 40.4375 6.390625 
Q 35.546875 2.25 31.03125 0.53125 
Q 26.515625 -1.171875 21.34375 -1.171875 
Q 12.796875 -1.171875 8.203125 3 
Q 3.609375 7.171875 3.609375 13.671875 
Q 3.609375 17.484375 5.34375 20.625 
Q 7.078125 23.78125 9.890625 25.6875 
Q 12.703125 27.59375 16.21875 28.5625 
Q 18.796875 29.25 24.03125 29.890625 
Q 34.671875 31.15625 39.703125 32.90625 
Q 39.75 34.71875 39.75 35.203125 
Q 39.75 40.578125 37.25 42.78125 
Q 33.890625 45.75 27.25 45.75 
Q 21.046875 45.75 18.09375 43.578125 
Q 15.140625 41.40625 13.71875 35.890625 
L 5.125 37.0625 
Q 6.296875 42.578125 8.984375 45.96875 
Q 11.671875 49.359375 16.75 51.1875 
Q 21.828125 53.03125 28.515625 53.03125 
Q 35.15625 53.03125 39.296875 51.46875 
Q 43.453125 49.90625 45.40625 47.53125 
Q 47.359375 45.171875 48.140625 41.546875 
Q 48.578125 39.3125 48.578125 33.453125 
L 48.578125 21.734375 
Q 48.578125 9.46875 49.140625 6.21875 
Q 49.703125 2.984375 51.375 0 
L 42.1875 0 
Q 40.828125 2.734375 40.4375 6.390625 
z
M 39.703125 26.03125 
Q 34.90625 24.078125 25.34375 22.703125 
Q 19.921875 21.921875 17.671875 20.9375 
Q 15.4375 19.96875 14.203125 18.09375 
Q 12.984375 16.21875 12.984375 13.921875 
Q 12.984375 10.40625 15.640625 8.0625 
Q 18.3125 5.71875 23.4375 5.71875 
Q 28.515625 5.71875 32.46875 7.9375 
Q 36.421875 10.15625 38.28125 14.015625 
Q 39.703125 17 39.703125 22.796875 
z
" id="ArialMT-61"/>
      <path d="M 6.640625 61.46875 
L 6.640625 71.578125 
L 15.4375 71.578125 
L 15.4375 61.46875 
z
M 6.640625 0 
L 6.640625 51.859375 
L 15.4375 51.859375 
L 15.4375 0 
z
" id="ArialMT-69"/>
      <path d="M 4.984375 -4.296875 
L 13.53125 -5.5625 
Q 14.0625 -9.515625 16.5 -11.328125 
Q 19.78125 -13.765625 25.4375 -13.765625 
Q 31.546875 -13.765625 34.859375 -11.328125 
Q 38.1875 -8.890625 39.359375 -4.5 
Q 40.046875 -1.8125 39.984375 6.78125 
Q 34.234375 0 25.640625 0 
Q 14.9375 0 9.078125 7.71875 
Q 3.21875 15.4375 3.21875 26.21875 
Q 3.21875 33.640625 5.90625 39.90625 
Q 8.59375 46.1875 13.6875 49.609375 
Q 18.796875 53.03125 25.6875 53.03125 
Q 34.859375 53.03125 40.828125 45.609375 
L 40.828125 51.859375 
L 48.921875 51.859375 
L 48.921875 7.03125 
Q 48.921875 -5.078125 46.453125 -10.125 
Q 44 -15.1875 38.640625 -18.109375 
Q 33.296875 -21.046875 25.484375 -21.046875 
Q 16.21875 -21.046875 10.5 -16.875 
Q 4.78125 -12.703125 4.984375 -4.296875 
z
M 12.25 26.859375 
Q 12.25 16.65625 16.296875 11.96875 
Q 20.359375 7.28125 26.46875 7.28125 
Q 32.515625 7.28125 36.609375 11.9375 
Q 40.71875 16.609375 40.71875 26.5625 
Q 40.71875 36.078125 36.5 40.90625 
Q 32.28125 45.75 26.3125 45.75 
Q 20.453125 45.75 16.34375 40.984375 
Q 12.25 36.234375 12.25 26.859375 
z
" id="ArialMT-67"/>
      <path d="M 6.203125 -19.96875 
L 5.21875 -11.71875 
Q 8.109375 -12.5 10.25 -12.5 
Q 13.1875 -12.5 14.9375 -11.515625 
Q 16.703125 -10.546875 17.828125 -8.796875 
Q 18.65625 -7.46875 20.515625 -2.25 
Q 20.75 -1.515625 21.296875 -0.09375 
L 1.609375 51.859375 
L 11.078125 51.859375 
L 21.875 21.828125 
Q 23.96875 16.109375 25.640625 9.8125 
Q 27.15625 15.875 29.25 21.625 
L 40.328125 51.859375 
L 49.125 51.859375 
L 29.390625 -0.875 
Q 26.21875 -9.421875 24.46875 -12.640625 
Q 22.125 -17 19.09375 -19.015625 
Q 16.0625 -21.046875 11.859375 -21.046875 
Q 9.328125 -21.046875 6.203125 -19.96875 
z
" id="ArialMT-79"/>
     </defs>
     <g style="fill:#262626;" transform="translate(19.5687 241.559819)rotate(-90)scale(0.1728 -0.1728)">
      <use xlink:href="#ArialMT-54"/>
      <use x="61.037109" xlink:href="#ArialMT-72"/>
      <use x="94.337891" xlink:href="#ArialMT-61"/>
      <use x="149.953125" xlink:href="#ArialMT-69"/>
      <use x="172.169922" xlink:href="#ArialMT-6e"/>
      <use x="227.785156" xlink:href="#ArialMT-69"/>
      <use x="250.001953" xlink:href="#ArialMT-6e"/>
      <use x="305.617188" xlink:href="#ArialMT-67"/>
      <use x="361.232422" xlink:href="#ArialMT-20"/>
      <use x="389.015625" xlink:href="#ArialMT-61"/>
      <use x="444.630859" xlink:href="#ArialMT-63"/>
      <use x="494.630859" xlink:href="#ArialMT-63"/>
      <use x="544.630859" xlink:href="#ArialMT-75"/>
      <use x="600.246094" xlink:href="#ArialMT-72"/>
      <use x="633.546875" xlink:href="#ArialMT-61"/>
      <use x="689.162109" xlink:href="#ArialMT-63"/>
      <use x="739.162109" xlink:href="#ArialMT-79"/>
     </g>
    </g>
   </g>
   <g id="line2d_10">
    <path clip-path="url(#p1af11b79df)" d="M 57.5232 307.380227 
L 62.629972 261.345563 
L 65.183359 220.366728 
L 67.736745 191.628325 
L 70.290131 180.984472 
L 72.843517 164.486499 
L 75.396903 161.825536 
L 77.95029 157.035802 
L 80.503676 147.988527 
L 83.057062 146.391949 
L 85.610448 143.464889 
L 88.163835 139.207348 
L 90.717221 138.142963 
L 93.270607 131.224458 
L 95.823993 129.095688 
L 98.377379 128.563495 
L 100.930766 127.49911 
L 103.484152 121.911087 
L 106.037538 118.717931 
L 108.590924 120.846702 
L 111.14431 118.185738 
L 113.697697 116.056968 
L 116.251083 117.919642 
L 118.804469 116.056968 
L 121.357855 115.790871 
L 123.911241 113.396004 
L 126.464628 112.331619 
L 129.018014 112.863812 
L 131.5714 112.597715 
L 134.124786 109.936752 
L 136.678173 111.267234 
L 139.231559 108.872367 
L 141.784945 109.936752 
L 144.338331 107.275789 
L 146.891717 104.880922 
L 149.445104 106.211404 
L 151.99849 108.074078 
L 154.551876 105.679211 
L 157.105262 104.614826 
L 159.658648 102.486055 
L 162.212035 102.219959 
L 164.765421 100.889477 
L 167.318807 101.155573 
L 169.872193 102.752151 
L 172.425579 101.687766 
L 174.978966 102.752151 
L 177.532352 100.889477 
L 180.085738 101.42167 
L 182.639124 101.155573 
L 185.192511 100.091188 
L 187.745897 101.687766 
L 190.299283 98.760706 
L 192.852669 98.49461 
L 195.406055 98.760706 
L 197.959442 98.228514 
L 200.512828 98.760706 
L 203.066214 96.631936 
L 205.6196 94.769261 
L 208.172986 96.099743 
L 210.726373 95.035358 
L 213.279759 93.172684 
L 215.833145 95.035358 
L 218.386531 92.640491 
L 220.939918 92.374395 
L 223.493304 92.906587 
L 226.04669 91.043913 
L 228.600076 90.777817 
L 231.153462 90.245624 
L 233.706849 90.777817 
L 236.260235 89.181239 
L 238.813621 88.116853 
L 241.367007 89.181239 
L 243.920393 86.254179 
L 246.47378 88.915142 
L 249.027166 84.657601 
L 251.580552 84.923697 
L 254.133938 85.988083 
L 256.687324 87.318564 
L 259.240711 85.45589 
L 261.794097 81.996638 
L 264.347483 85.721986 
L 269.454256 81.996638 
L 272.007642 81.996638 
L 274.561028 81.464445 
L 277.114414 81.198349 
L 279.6678 81.198349 
L 282.221187 81.464445 
L 284.774573 81.198349 
L 287.327959 81.730541 
L 289.881345 81.464445 
L 292.434731 81.730541 
L 294.988118 80.40006 
L 297.541504 80.40006 
L 300.09489 78.271289 
L 302.648276 81.198349 
L 305.201662 80.40006 
L 307.755049 78.537386 
L 310.308435 77.473 
L 312.861821 79.601771 
L 315.415207 77.739097 
L 317.968594 78.005193 
L 320.52198 78.005193 
L 323.075366 76.408615 
L 325.628752 78.005193 
L 328.182138 76.408615 
L 330.735525 76.940808 
L 333.288911 75.34423 
L 335.842297 75.876422 
L 340.949069 75.34423 
L 346.055842 73.747652 
L 348.609228 72.151074 
L 351.162614 76.142519 
L 353.716 74.013748 
L 356.269387 73.481555 
L 358.822773 74.545941 
L 361.376159 74.279844 
L 363.929545 72.683266 
L 366.482932 70.820592 
L 369.036318 72.151074 
L 371.589704 74.545941 
L 374.14309 72.151074 
L 376.696476 73.215459 
L 379.249863 72.41717 
L 381.803249 71.086688 
L 384.356635 71.086688 
L 386.910021 73.215459 
L 389.463407 68.425725 
L 392.016794 70.554496 
L 397.123566 68.957918 
L 399.676952 69.49011 
L 402.230338 69.224014 
L 404.783725 70.288399 
L 407.337111 70.554496 
L 409.890497 70.022303 
L 412.443883 70.022303 
L 414.99727 67.095243 
L 417.550656 67.893532 
L 420.104042 68.159629 
L 422.657428 67.095243 
L 425.210814 68.159629 
L 427.764201 68.957918 
L 430.317587 68.159629 
L 432.870973 65.232569 
L 435.424359 67.095243 
L 437.977745 65.764762 
L 437.977745 65.764762 
" style="fill:none;stroke:#1e90ff;stroke-linecap:round;stroke-width:3;"/>
   </g>
   <g id="line2d_11">
    <path clip-path="url(#p1af11b79df)" d="M 57.5232 315.363117 
L 60.076586 278.90792 
L 62.629972 247.242457 
L 65.183359 217.173572 
L 70.290131 167.413559 
L 72.843517 156.503609 
L 75.396903 144.263178 
L 77.95029 141.336119 
L 80.503676 132.55494 
L 83.057062 130.692266 
L 85.610448 124.838146 
L 88.163835 123.507665 
L 90.717221 122.975472 
L 93.270607 119.782316 
L 95.823993 115.258679 
L 98.377379 111.799426 
L 100.930766 113.129908 
L 103.484152 112.331619 
L 106.037538 109.138463 
L 108.590924 109.138463 
L 111.14431 106.211404 
L 113.697697 105.679211 
L 116.251083 105.413115 
L 118.804469 101.687766 
L 121.357855 99.292899 
L 123.911241 98.49461 
L 126.464628 96.631936 
L 129.018014 92.374395 
L 131.5714 92.374395 
L 134.124786 88.649046 
L 136.678173 91.310009 
L 139.231559 90.245624 
L 141.784945 88.116853 
L 144.338331 87.850757 
L 146.891717 86.786372 
L 149.445104 88.649046 
L 151.99849 86.786372 
L 154.551876 88.38295 
L 159.658648 87.850757 
L 162.212035 86.786372 
L 164.765421 85.45589 
L 167.318807 87.052468 
L 169.872193 84.391505 
L 174.978966 81.730541 
L 177.532352 80.666156 
L 182.639124 80.133963 
L 185.192511 78.537386 
L 190.299283 76.408615 
L 195.406055 76.408615 
L 197.959442 74.013748 
L 200.512828 73.747652 
L 203.066214 72.949363 
L 205.6196 72.41717 
L 208.172986 73.747652 
L 210.726373 72.151074 
L 213.279759 71.884977 
L 215.833145 69.224014 
L 218.386531 69.756207 
L 220.939918 68.425725 
L 223.493304 66.829147 
L 226.04669 67.893532 
L 228.600076 67.893532 
L 231.153462 66.829147 
L 233.706849 65.498665 
L 236.260235 66.563051 
L 238.813621 66.829147 
L 241.367007 66.829147 
L 246.47378 66.296954 
L 249.027166 65.232569 
L 251.580552 65.764762 
L 254.133938 65.498665 
L 256.687324 66.030858 
L 259.240711 65.764762 
L 261.794097 66.030858 
L 264.347483 64.700376 
L 266.900869 66.030858 
L 269.454256 63.635991 
L 272.007642 64.966473 
L 274.561028 63.635991 
L 277.114414 64.700376 
L 279.6678 62.571606 
L 282.221187 63.369895 
L 284.774573 62.039413 
L 289.881345 60.975028 
L 292.434731 59.37845 
L 294.988118 58.580161 
L 297.541504 60.176739 
L 300.09489 58.846257 
L 302.648276 58.580161 
L 305.201662 60.442835 
L 307.755049 59.644546 
L 310.308435 58.047968 
L 312.861821 57.781872 
L 315.415207 58.580161 
L 317.968594 58.314065 
L 320.52198 58.580161 
L 323.075366 59.37845 
L 325.628752 58.846257 
L 328.182138 58.846257 
L 330.735525 57.515776 
L 333.288911 55.919198 
L 338.395683 56.983583 
L 340.949069 56.45139 
L 343.502456 55.387005 
L 346.055842 57.515776 
L 348.609228 55.387005 
L 351.162614 54.588716 
L 353.716 55.653101 
L 356.269387 54.854812 
L 358.822773 55.919198 
L 361.376159 56.185294 
L 363.929545 56.185294 
L 366.482932 55.919198 
L 369.036318 55.387005 
L 371.589704 54.32262 
L 374.14309 54.32262 
L 376.696476 54.056523 
L 379.249863 54.056523 
L 381.803249 54.32262 
L 384.356635 54.32262 
L 386.910021 55.120909 
L 389.463407 54.588716 
L 392.016794 54.854812 
L 394.57018 55.653101 
L 397.123566 53.258234 
L 399.676952 54.32262 
L 402.230338 53.258234 
L 404.783725 54.854812 
L 407.337111 55.387005 
L 409.890497 54.854812 
L 412.443883 52.726042 
L 414.99727 53.524331 
L 417.550656 52.992138 
L 420.104042 52.193849 
L 422.657428 54.32262 
L 425.210814 51.661656 
L 427.764201 51.39556 
L 430.317587 52.459945 
L 432.870973 52.459945 
L 435.424359 53.258234 
L 440.531132 51.129464 
L 443.084518 51.39556 
L 445.637904 52.992138 
L 448.19129 50.863367 
L 450.744677 51.661656 
L 453.298063 50.863367 
L 455.851449 50.331175 
L 458.404835 51.129464 
L 460.958221 50.065078 
L 463.511608 51.661656 
L 466.064994 48.734597 
L 468.61838 50.065078 
L 471.171766 49.798982 
L 473.725152 50.065078 
L 476.278539 49.000693 
L 478.831925 49.000693 
L 481.385311 49.798982 
L 483.938697 50.331175 
L 486.492083 49.000693 
L 489.04547 49.532886 
L 491.598856 51.661656 
L 494.152242 48.202404 
L 496.705628 48.4685 
L 501.812401 48.4685 
L 504.365787 49.532886 
L 506.919173 47.936308 
L 509.472559 47.936308 
L 512.025946 46.33973 
L 514.579332 47.138019 
L 517.132718 48.202404 
L 519.686104 47.670212 
L 522.23949 48.202404 
L 524.792877 45.541441 
L 527.346263 46.871923 
L 529.899649 46.33973 
L 529.899649 46.33973 
" style="fill:none;stroke:#32cd32;stroke-linecap:round;stroke-width:3;"/>
   </g>
   <g id="line2d_12">
    <path clip-path="url(#p1af11b79df)" d="M 57.5232 304.453168 
L 60.076586 255.491443 
L 62.629972 238.195182 
L 65.183359 206.529719 
L 67.736745 177.525219 
L 70.290131 161.55944 
L 72.843517 153.57655 
L 77.95029 140.271733 
L 85.610448 122.709376 
L 88.163835 118.717931 
L 90.717221 116.58916 
L 93.270607 108.872367 
L 95.823993 107.275789 
L 98.377379 105.413115 
L 100.930766 104.614826 
L 103.484152 100.357284 
L 106.037538 100.623381 
L 108.590924 98.760706 
L 111.14431 95.56755 
L 113.697697 96.898032 
L 116.251083 96.631936 
L 123.911241 91.043913 
L 126.464628 90.777817 
L 131.5714 89.713431 
L 134.124786 89.447335 
L 136.678173 88.116853 
L 139.231559 86.520275 
L 141.784945 86.254179 
L 144.338331 84.391505 
L 146.891717 83.327119 
L 149.445104 80.932252 
L 151.99849 80.932252 
L 154.551876 79.335674 
L 157.105262 79.335674 
L 159.658648 77.206904 
L 162.212035 78.271289 
L 164.765421 76.940808 
L 167.318807 75.078133 
L 169.872193 74.545941 
L 172.425579 74.545941 
L 174.978966 75.34423 
L 177.532352 74.013748 
L 180.085738 74.279844 
L 182.639124 74.013748 
L 185.192511 73.215459 
L 187.745897 73.481555 
L 190.299283 72.949363 
L 192.852669 72.151074 
L 195.406055 72.683266 
L 197.959442 71.352785 
L 200.512828 72.683266 
L 203.066214 70.820592 
L 205.6196 71.352785 
L 208.172986 70.554496 
L 210.726373 71.352785 
L 215.833145 69.756207 
L 218.386531 70.022303 
L 220.939918 70.554496 
L 226.04669 66.829147 
L 228.600076 68.159629 
L 231.153462 66.563051 
L 233.706849 67.627436 
L 236.260235 66.563051 
L 238.813621 66.030858 
L 241.367007 65.764762 
L 243.920393 66.030858 
L 246.47378 64.168184 
L 249.027166 63.902087 
L 251.580552 63.369895 
L 254.133938 63.635991 
L 256.687324 63.103799 
L 259.240711 61.773317 
L 261.794097 61.773317 
L 264.347483 60.176739 
L 266.900869 57.781872 
L 272.007642 59.37845 
L 274.561028 58.314065 
L 277.114414 57.781872 
L 279.6678 57.515776 
L 282.221187 57.781872 
L 284.774573 57.781872 
L 287.327959 57.249679 
L 289.881345 55.919198 
L 292.434731 54.854812 
L 294.988118 55.387005 
L 297.541504 54.32262 
L 300.09489 54.854812 
L 302.648276 53.524331 
L 305.201662 53.790427 
L 307.755049 53.524331 
L 310.308435 54.854812 
L 312.861821 51.39556 
L 315.415207 53.524331 
L 317.968594 52.726042 
L 320.52198 52.992138 
L 323.075366 51.39556 
L 325.628752 52.726042 
L 328.182138 53.258234 
L 330.735525 53.524331 
L 333.288911 51.39556 
L 335.842297 52.459945 
L 338.395683 51.39556 
L 340.949069 51.927753 
L 343.502456 51.661656 
L 346.055842 52.193849 
L 348.609228 52.459945 
L 351.162614 51.129464 
L 353.716 51.129464 
L 356.269387 51.661656 
L 358.822773 52.459945 
L 361.376159 50.597271 
L 363.929545 50.597271 
L 366.482932 50.065078 
L 369.036318 49.798982 
L 371.589704 49.000693 
L 374.14309 50.065078 
L 376.696476 49.532886 
L 379.249863 50.597271 
L 381.803249 47.936308 
L 384.356635 50.331175 
L 386.910021 47.404115 
L 389.463407 48.4685 
L 394.57018 47.936308 
L 397.123566 47.936308 
L 399.676952 47.138019 
L 402.230338 45.541441 
L 404.783725 46.871923 
L 407.337111 47.138019 
L 409.890497 45.541441 
L 412.443883 45.275345 
L 414.99727 45.541441 
L 417.550656 44.477056 
L 420.104042 44.477056 
L 422.657428 43.944863 
L 425.210814 43.678767 
L 427.764201 43.944863 
L 430.317587 42.614381 
L 432.870973 44.477056 
L 435.424359 42.880478 
L 437.977745 43.146574 
L 440.531132 41.017803 
L 443.084518 41.816092 
L 445.637904 42.082189 
L 448.19129 41.017803 
L 450.744677 42.082189 
L 453.298063 41.549996 
L 455.851449 39.953418 
L 458.404835 41.549996 
L 460.958221 41.017803 
L 463.511608 41.017803 
L 466.064994 40.751707 
L 468.61838 40.219514 
L 471.171766 41.549996 
L 473.725152 40.219514 
L 476.278539 39.687322 
L 478.831925 39.687322 
L 481.385311 39.421225 
L 483.938697 39.421225 
L 486.492083 38.889033 
L 489.04547 40.485611 
L 491.598856 39.687322 
L 494.152242 40.219514 
L 496.705628 37.558551 
L 499.259015 39.953418 
L 501.812401 38.35684 
L 504.365787 38.622936 
L 506.919173 37.292455 
L 512.025946 37.824647 
L 517.132718 37.292455 
L 519.686104 36.760262 
L 522.23949 35.961973 
L 524.792877 36.228069 
L 527.346263 37.558551 
L 529.899649 35.163684 
L 532.453035 35.961973 
L 535.006421 35.695877 
L 537.559808 36.760262 
L 540.113194 36.494166 
L 545.219966 37.026358 
L 547.773353 35.163684 
L 550.326739 36.228069 
L 555.433511 35.695877 
L 557.986897 36.228069 
L 560.540284 34.631491 
L 563.09367 35.42978 
L 565.647056 36.494166 
L 568.200442 35.42978 
L 573.307215 35.42978 
L 575.860601 34.365395 
L 578.413987 34.897588 
L 580.967373 31.704432 
L 583.520759 33.30101 
L 586.074146 33.567106 
L 588.627532 33.567106 
L 591.180918 34.897588 
L 593.734304 33.833202 
L 598.841077 34.897588 
L 603.947849 33.30101 
L 606.501235 33.034913 
L 611.608008 33.034913 
L 614.161394 31.704432 
L 616.71478 33.30101 
L 619.268166 31.970528 
L 621.821553 31.970528 
L 624.374939 32.236625 
L 626.928325 31.172239 
L 632.035097 32.236625 
L 634.588484 31.172239 
L 637.14187 31.438336 
L 639.695256 30.37395 
L 642.248642 29.841758 
L 644.802029 31.438336 
L 647.355415 31.172239 
L 652.462187 31.172239 
L 655.015573 29.575661 
L 657.56896 30.37395 
L 660.122346 30.640047 
L 662.675732 29.043469 
L 665.229118 29.309565 
L 667.782504 30.107854 
L 672.889277 28.511276 
L 675.442663 30.37395 
L 677.996049 30.107854 
L 680.549436 30.107854 
L 683.102822 29.575661 
L 685.656208 29.841758 
L 688.209594 29.575661 
L 690.76298 28.777372 
L 693.316367 29.841758 
L 695.869753 27.180794 
L 698.423139 29.043469 
L 700.976525 27.712987 
L 703.529911 28.24518 
L 706.083298 27.446891 
L 706.083298 27.446891 
" style="fill:none;stroke:#ffa500;stroke-linecap:round;stroke-width:3;"/>
   </g>
   <g id="line2d_13">
    <path clip-path="url(#p1af11b79df)" d="M 57.5232 301.260012 
L 60.076586 262.676044 
L 62.629972 221.431113 
L 65.183359 178.323508 
L 67.736745 161.293343 
L 70.290131 143.464889 
L 72.843517 141.070022 
L 75.396903 130.692266 
L 77.95029 121.644991 
L 80.503676 114.726486 
L 83.057062 113.928197 
L 90.717221 101.155573 
L 93.270607 97.696321 
L 95.823993 96.365839 
L 98.377379 93.970973 
L 100.930766 92.108298 
L 103.484152 91.576106 
L 106.037538 90.777817 
L 108.590924 88.116853 
L 111.14431 87.052468 
L 116.251083 84.391505 
L 118.804469 82.794927 
L 123.911241 81.198349 
L 126.464628 80.133963 
L 129.018014 77.473 
L 131.5714 75.610326 
L 134.124786 74.812037 
L 136.678173 74.279844 
L 139.231559 73.481555 
L 141.784945 74.279844 
L 144.338331 74.279844 
L 146.891717 71.884977 
L 149.445104 70.288399 
L 151.99849 71.086688 
L 154.551876 67.627436 
L 157.105262 66.829147 
L 159.658648 67.36134 
L 162.212035 68.159629 
L 167.318807 67.627436 
L 169.872193 66.563051 
L 172.425579 67.095243 
L 174.978966 65.498665 
L 177.532352 66.030858 
L 180.085738 65.232569 
L 182.639124 63.635991 
L 185.192511 62.571606 
L 187.745897 61.241124 
L 190.299283 59.644546 
L 192.852669 58.314065 
L 195.406055 58.846257 
L 197.959442 58.846257 
L 200.512828 57.249679 
L 203.066214 56.717487 
L 205.6196 55.653101 
L 208.172986 55.919198 
L 210.726373 54.32262 
L 215.833145 53.790427 
L 218.386531 52.193849 
L 220.939918 53.258234 
L 223.493304 52.193849 
L 226.04669 51.661656 
L 228.600076 52.726042 
L 231.153462 51.927753 
L 233.706849 52.193849 
L 236.260235 51.129464 
L 238.813621 50.863367 
L 241.367007 51.129464 
L 243.920393 50.331175 
L 246.47378 50.863367 
L 249.027166 48.734597 
L 251.580552 48.4685 
L 254.133938 47.404115 
L 256.687324 46.605826 
L 259.240711 46.871923 
L 261.794097 47.404115 
L 264.347483 47.138019 
L 269.454256 45.009248 
L 272.007642 44.210959 
L 274.561028 45.275345 
L 277.114414 45.541441 
L 279.6678 42.880478 
L 282.221187 45.275345 
L 284.774573 43.678767 
L 287.327959 41.816092 
L 289.881345 43.146574 
L 292.434731 44.210959 
L 294.988118 43.41267 
L 297.541504 43.944863 
L 302.648276 42.880478 
L 305.201662 42.082189 
L 307.755049 41.816092 
L 310.308435 43.41267 
L 312.861821 42.880478 
L 315.415207 43.146574 
L 320.52198 42.082189 
L 325.628752 42.614381 
L 328.182138 41.549996 
L 330.735525 41.816092 
L 333.288911 41.017803 
L 335.842297 41.2839 
L 338.395683 40.485611 
L 340.949069 40.219514 
L 343.502456 40.219514 
L 346.055842 40.485611 
L 348.609228 39.155129 
L 351.162614 38.622936 
L 353.716 39.155129 
L 356.269387 38.889033 
L 358.822773 38.090744 
L 361.376159 38.889033 
L 363.929545 38.35684 
L 366.482932 38.35684 
L 369.036318 37.558551 
L 371.589704 37.292455 
L 374.14309 37.292455 
L 376.696476 36.494166 
L 379.249863 36.228069 
L 381.803249 35.42978 
L 384.356635 35.695877 
L 386.910021 36.494166 
L 389.463407 34.897588 
L 392.016794 35.42978 
L 394.57018 33.567106 
L 397.123566 34.631491 
L 399.676952 33.034913 
L 402.230338 34.365395 
L 404.783725 33.833202 
L 407.337111 34.631491 
L 409.890497 33.833202 
L 412.443883 34.897588 
L 414.99727 34.365395 
L 417.550656 34.365395 
L 420.104042 33.30101 
L 422.657428 32.768817 
L 425.210814 33.567106 
L 427.764201 33.30101 
L 430.317587 32.236625 
L 432.870973 32.236625 
L 435.424359 31.704432 
L 437.977745 32.768817 
L 440.531132 32.236625 
L 443.084518 31.970528 
L 445.637904 31.172239 
L 448.19129 32.236625 
L 450.744677 30.37395 
L 453.298063 30.640047 
L 455.851449 30.640047 
L 458.404835 30.107854 
L 460.958221 30.37395 
L 463.511608 29.043469 
L 466.064994 29.841758 
L 468.61838 29.841758 
L 471.171766 30.37395 
L 473.725152 28.511276 
L 476.278539 29.309565 
L 478.831925 29.841758 
L 481.385311 29.309565 
L 483.938697 28.511276 
L 486.492083 29.575661 
L 489.04547 28.511276 
L 491.598856 27.979083 
L 494.152242 28.777372 
L 494.152242 28.777372 
" style="fill:none;stroke:#000000;stroke-linecap:round;stroke-width:3;"/>
   </g>
   <g id="patch_3">
    <path d="M 57.5232 333.98986 
L 57.5232 12.771678 
" style="fill:none;stroke:#262626;stroke-linecap:square;stroke-linejoin:miter;"/>
   </g>
   <g id="patch_4">
    <path d="M 57.5232 333.98986 
L 437.977745 333.98986 
" style="fill:none;stroke:#262626;stroke-linecap:square;stroke-linejoin:miter;"/>
   </g>
  </g>
  <g id="axes_2">
   <g id="patch_5">
    <path d="M 514.068655 333.98986 
L 894.5232 333.98986 
L 894.5232 12.771678 
L 514.068655 12.771678 
z
" style="fill:#ffffff;"/>
   </g>
   <g id="matplotlib.axis_3">
    <g id="xtick_5">
     <g id="line2d_14">
      <g>
       <use style="fill:#262626;stroke:#262626;" x="514.068655" xlink:href="#mf95a2003b5" y="333.98986"/>
      </g>
     </g>
     <g id="text_12">
      <!-- 1 -->
      <g style="fill:#262626;" transform="translate(509.664392 353.627835)scale(0.1584 -0.1584)">
       <use xlink:href="#ArialMT-31"/>
      </g>
     </g>
    </g>
    <g id="xtick_6">
     <g id="line2d_15">
      <g>
       <use style="fill:#262626;stroke:#262626;" x="639.184579" xlink:href="#mf95a2003b5" y="333.98986"/>
      </g>
     </g>
     <g id="text_13">
      <!-- 50 -->
      <g style="fill:#262626;" transform="translate(630.376054 353.627835)scale(0.1584 -0.1584)">
       <use xlink:href="#ArialMT-35"/>
       <use x="55.615234" xlink:href="#ArialMT-30"/>
      </g>
     </g>
    </g>
    <g id="xtick_7">
     <g id="line2d_16">
      <g>
       <use style="fill:#262626;stroke:#262626;" x="766.853889" xlink:href="#mf95a2003b5" y="333.98986"/>
      </g>
     </g>
     <g id="text_14">
      <!-- 100 -->
      <g style="fill:#262626;" transform="translate(753.641102 353.627835)scale(0.1584 -0.1584)">
       <use xlink:href="#ArialMT-31"/>
       <use x="55.615234" xlink:href="#ArialMT-30"/>
       <use x="111.230469" xlink:href="#ArialMT-30"/>
      </g>
     </g>
    </g>
    <g id="xtick_8">
     <g id="line2d_17">
      <g>
       <use style="fill:#262626;stroke:#262626;" x="894.5232" xlink:href="#mf95a2003b5" y="333.98986"/>
      </g>
     </g>
     <g id="text_15">
      <!-- 150 -->
      <g style="fill:#262626;" transform="translate(881.310412 353.627835)scale(0.1584 -0.1584)">
       <use xlink:href="#ArialMT-31"/>
       <use x="55.615234" xlink:href="#ArialMT-35"/>
       <use x="111.230469" xlink:href="#ArialMT-30"/>
      </g>
     </g>
    </g>
    <g id="text_16">
     <!-- Number of components -->
     <g style="fill:#262626;" transform="translate(614.497977 373.355335)scale(0.1728 -0.1728)">
      <use xlink:href="#ArialMT-4e"/>
      <use x="72.216797" xlink:href="#ArialMT-75"/>
      <use x="127.832031" xlink:href="#ArialMT-6d"/>
      <use x="211.132812" xlink:href="#ArialMT-62"/>
      <use x="266.748047" xlink:href="#ArialMT-65"/>
      <use x="322.363281" xlink:href="#ArialMT-72"/>
      <use x="355.664062" xlink:href="#ArialMT-20"/>
      <use x="383.447266" xlink:href="#ArialMT-6f"/>
      <use x="439.0625" xlink:href="#ArialMT-66"/>
      <use x="466.845703" xlink:href="#ArialMT-20"/>
      <use x="494.628906" xlink:href="#ArialMT-63"/>
      <use x="544.628906" xlink:href="#ArialMT-6f"/>
      <use x="600.244141" xlink:href="#ArialMT-6d"/>
      <use x="683.544922" xlink:href="#ArialMT-70"/>
      <use x="739.160156" xlink:href="#ArialMT-6f"/>
      <use x="794.775391" xlink:href="#ArialMT-6e"/>
      <use x="850.390625" xlink:href="#ArialMT-65"/>
      <use x="906.005859" xlink:href="#ArialMT-6e"/>
      <use x="961.621094" xlink:href="#ArialMT-74"/>
      <use x="989.404297" xlink:href="#ArialMT-73"/>
     </g>
    </g>
   </g>
   <g id="matplotlib.axis_4">
    <g id="ytick_6">
     <g id="line2d_18">
      <g>
       <use style="fill:#262626;stroke:#262626;" x="514.068655" xlink:href="#m3a1950371c" y="333.98986"/>
      </g>
     </g>
     <g id="text_17">
      <!-- 0.0 -->
      <g style="fill:#262626;" transform="translate(483.751055 339.658847)scale(0.1584 -0.1584)">
       <use xlink:href="#ArialMT-30"/>
       <use x="55.615234" xlink:href="#ArialMT-2e"/>
       <use x="83.398438" xlink:href="#ArialMT-30"/>
      </g>
     </g>
    </g>
    <g id="ytick_7">
     <g id="line2d_19">
      <g>
       <use style="fill:#262626;stroke:#262626;" x="514.068655" xlink:href="#m3a1950371c" y="269.765685"/>
      </g>
     </g>
     <g id="text_18">
      <!-- 0.1 -->
      <g style="fill:#262626;" transform="translate(483.751055 275.434673)scale(0.1584 -0.1584)">
       <use xlink:href="#ArialMT-30"/>
       <use x="55.615234" xlink:href="#ArialMT-2e"/>
       <use x="83.398438" xlink:href="#ArialMT-31"/>
      </g>
     </g>
    </g>
    <g id="ytick_8">
     <g id="line2d_20">
      <g>
       <use style="fill:#262626;stroke:#262626;" x="514.068655" xlink:href="#m3a1950371c" y="205.541511"/>
      </g>
     </g>
     <g id="text_19">
      <!-- 0.2 -->
      <g style="fill:#262626;" transform="translate(483.751055 211.210498)scale(0.1584 -0.1584)">
       <use xlink:href="#ArialMT-30"/>
       <use x="55.615234" xlink:href="#ArialMT-2e"/>
       <use x="83.398438" xlink:href="#ArialMT-32"/>
      </g>
     </g>
    </g>
    <g id="ytick_9">
     <g id="line2d_21">
      <g>
       <use style="fill:#262626;stroke:#262626;" x="514.068655" xlink:href="#m3a1950371c" y="141.317336"/>
      </g>
     </g>
     <g id="text_20">
      <!-- 0.3 -->
      <defs>
       <path d="M 4.203125 18.890625 
L 12.984375 20.0625 
Q 14.5 12.59375 18.140625 9.296875 
Q 21.78125 6 27 6 
Q 33.203125 6 37.46875 10.296875 
Q 41.75 14.59375 41.75 20.953125 
Q 41.75 27 37.796875 30.921875 
Q 33.84375 34.859375 27.734375 34.859375 
Q 25.25 34.859375 21.53125 33.890625 
L 22.515625 41.609375 
Q 23.390625 41.5 23.921875 41.5 
Q 29.546875 41.5 34.03125 44.421875 
Q 38.53125 47.359375 38.53125 53.46875 
Q 38.53125 58.296875 35.25 61.46875 
Q 31.984375 64.65625 26.8125 64.65625 
Q 21.6875 64.65625 18.265625 61.421875 
Q 14.84375 58.203125 13.875 51.765625 
L 5.078125 53.328125 
Q 6.6875 62.15625 12.390625 67.015625 
Q 18.109375 71.875 26.609375 71.875 
Q 32.46875 71.875 37.390625 69.359375 
Q 42.328125 66.84375 44.9375 62.5 
Q 47.5625 58.15625 47.5625 53.265625 
Q 47.5625 48.640625 45.0625 44.828125 
Q 42.578125 41.015625 37.703125 38.765625 
Q 44.046875 37.3125 47.5625 32.6875 
Q 51.078125 28.078125 51.078125 21.140625 
Q 51.078125 11.765625 44.234375 5.25 
Q 37.40625 -1.265625 26.953125 -1.265625 
Q 17.53125 -1.265625 11.296875 4.34375 
Q 5.078125 9.96875 4.203125 18.890625 
z
" id="ArialMT-33"/>
      </defs>
      <g style="fill:#262626;" transform="translate(483.751055 146.986324)scale(0.1584 -0.1584)">
       <use xlink:href="#ArialMT-30"/>
       <use x="55.615234" xlink:href="#ArialMT-2e"/>
       <use x="83.398438" xlink:href="#ArialMT-33"/>
      </g>
     </g>
    </g>
    <g id="ytick_10">
     <g id="line2d_22">
      <g>
       <use style="fill:#262626;stroke:#262626;" x="514.068655" xlink:href="#m3a1950371c" y="77.093162"/>
      </g>
     </g>
     <g id="text_21">
      <!-- 0.4 -->
      <g style="fill:#262626;" transform="translate(483.751055 82.762149)scale(0.1584 -0.1584)">
       <use xlink:href="#ArialMT-30"/>
       <use x="55.615234" xlink:href="#ArialMT-2e"/>
       <use x="83.398438" xlink:href="#ArialMT-34"/>
      </g>
     </g>
    </g>
    <g id="ytick_11">
     <g id="line2d_23">
      <g>
       <use style="fill:#262626;stroke:#262626;" x="514.068655" xlink:href="#m3a1950371c" y="12.868987"/>
      </g>
     </g>
     <g id="text_22">
      <!-- 0.5 -->
      <g style="fill:#262626;" transform="translate(483.751055 18.537975)scale(0.1584 -0.1584)">
       <use xlink:href="#ArialMT-30"/>
       <use x="55.615234" xlink:href="#ArialMT-2e"/>
       <use x="83.398438" xlink:href="#ArialMT-35"/>
      </g>
     </g>
    </g>
    <g id="text_23">
     <!-- Testing accuracy -->
     <g style="fill:#262626;" transform="translate(476.114155 238.668119)rotate(-90)scale(0.1728 -0.1728)">
      <use xlink:href="#ArialMT-54"/>
      <use x="60.912109" xlink:href="#ArialMT-65"/>
      <use x="116.527344" xlink:href="#ArialMT-73"/>
      <use x="166.527344" xlink:href="#ArialMT-74"/>
      <use x="194.310547" xlink:href="#ArialMT-69"/>
      <use x="216.527344" xlink:href="#ArialMT-6e"/>
      <use x="272.142578" xlink:href="#ArialMT-67"/>
      <use x="327.757812" xlink:href="#ArialMT-20"/>
      <use x="355.541016" xlink:href="#ArialMT-61"/>
      <use x="411.15625" xlink:href="#ArialMT-63"/>
      <use x="461.15625" xlink:href="#ArialMT-63"/>
      <use x="511.15625" xlink:href="#ArialMT-75"/>
      <use x="566.771484" xlink:href="#ArialMT-72"/>
      <use x="600.072266" xlink:href="#ArialMT-61"/>
      <use x="655.6875" xlink:href="#ArialMT-63"/>
      <use x="705.6875" xlink:href="#ArialMT-79"/>
     </g>
    </g>
   </g>
   <g id="line2d_24">
    <path clip-path="url(#p926785e782)" d="M 514.068655 279.496621 
L 516.622041 219.164821 
L 519.175427 210.406979 
L 521.728813 157.859927 
L 524.282199 131.586401 
L 526.835586 111.151436 
L 529.388972 102.393594 
L 531.942358 108.232156 
L 534.495744 105.312875 
L 537.04913 96.555033 
L 539.602517 100.447407 
L 542.155903 96.555033 
L 544.709289 98.50122 
L 547.262675 103.366688 
L 549.816062 100.447407 
L 554.922834 90.716472 
L 557.47622 87.797191 
L 560.029606 88.770285 
L 562.582993 92.662659 
L 565.136379 98.50122 
L 567.689765 92.662659 
L 570.243151 95.581939 
L 572.796537 99.474314 
L 575.349924 95.581939 
L 577.90331 97.528127 
L 580.456696 101.420501 
L 583.010082 96.555033 
L 585.563468 90.716472 
L 588.116855 98.50122 
L 590.670241 103.366688 
L 593.223627 100.447407 
L 595.777013 98.50122 
L 598.3304 101.420501 
L 600.883786 95.581939 
L 603.437172 96.555033 
L 605.990558 96.555033 
L 608.543944 94.608846 
L 611.097331 93.635752 
L 613.650717 90.716472 
L 616.204103 105.312875 
L 618.757489 96.555033 
L 621.310875 95.581939 
L 623.864262 91.689565 
L 626.417648 100.447407 
L 628.971034 97.528127 
L 631.52442 100.447407 
L 634.077806 97.528127 
L 636.631193 102.393594 
L 639.184579 104.339781 
L 641.737965 101.420501 
L 646.844738 101.420501 
L 649.398124 98.50122 
L 651.95151 103.366688 
L 654.504896 97.528127 
L 657.058282 99.474314 
L 659.611669 100.447407 
L 662.165055 94.608846 
L 664.718441 96.555033 
L 667.271827 99.474314 
L 669.825213 96.555033 
L 672.3786 96.555033 
L 674.931986 89.743378 
L 677.485372 100.447407 
L 680.038758 100.447407 
L 682.592144 94.608846 
L 687.698917 106.285969 
L 690.252303 98.50122 
L 692.805689 99.474314 
L 695.359076 96.555033 
L 697.912462 99.474314 
L 700.465848 97.528127 
L 703.019234 97.528127 
L 705.57262 104.339781 
L 708.126007 94.608846 
L 710.679393 103.366688 
L 713.232779 102.393594 
L 715.786165 97.528127 
L 718.339551 105.312875 
L 720.892938 103.366688 
L 723.446324 104.339781 
L 725.99971 104.339781 
L 728.553096 101.420501 
L 731.106482 103.366688 
L 733.659869 103.366688 
L 736.213255 98.50122 
L 738.766641 103.366688 
L 741.320027 102.393594 
L 743.873414 104.339781 
L 746.4268 103.366688 
L 751.533572 103.366688 
L 754.086958 102.393594 
L 756.640345 102.393594 
L 759.193731 107.259062 
L 761.747117 102.393594 
L 764.300503 98.50122 
L 766.853889 101.420501 
L 769.407276 106.285969 
L 771.960662 105.312875 
L 774.514048 102.393594 
L 777.067434 101.420501 
L 779.620821 101.420501 
L 782.174207 96.555033 
L 784.727593 92.662659 
L 787.280979 98.50122 
L 789.834365 98.50122 
L 792.387752 97.528127 
L 794.941138 95.581939 
L 797.494524 97.528127 
L 800.04791 93.635752 
L 802.601296 96.555033 
L 805.154683 95.581939 
L 807.708069 99.474314 
L 810.261455 102.393594 
L 812.814841 93.635752 
L 815.368227 92.662659 
L 817.921614 97.528127 
L 820.475 96.555033 
L 823.028386 92.662659 
L 825.581772 91.689565 
L 828.135159 97.528127 
L 830.688545 100.447407 
L 833.241931 95.581939 
L 835.795317 97.528127 
L 840.90209 97.528127 
L 843.455476 98.50122 
L 846.008862 95.581939 
L 851.115634 97.528127 
L 853.669021 97.528127 
L 856.222407 99.474314 
L 858.775793 97.528127 
L 861.329179 103.366688 
L 863.882565 99.474314 
L 866.435952 100.447407 
L 868.989338 99.474314 
L 871.542724 99.474314 
L 874.09611 97.528127 
L 876.649497 100.447407 
L 879.202883 95.581939 
L 881.756269 96.555033 
L 884.309655 98.50122 
L 886.863041 97.528127 
L 889.416428 99.474314 
L 891.969814 97.528127 
L 894.5232 100.447407 
L 894.5232 100.447407 
" style="fill:none;stroke:#1e90ff;stroke-linecap:round;stroke-width:3;"/>
   </g>
   <g id="line2d_25">
    <path clip-path="url(#p926785e782)" d="M 514.068655 300.904679 
L 516.622041 218.191727 
L 519.175427 178.294891 
L 521.728813 164.671582 
L 524.282199 149.102085 
L 526.835586 132.559495 
L 529.388972 113.097623 
L 531.942358 119.909278 
L 534.495744 113.097623 
L 537.04913 124.774746 
L 539.602517 121.855465 
L 542.155903 115.043811 
L 544.709289 105.312875 
L 547.262675 102.393594 
L 549.816062 94.608846 
L 552.369448 104.339781 
L 554.922834 97.528127 
L 557.47622 100.447407 
L 560.029606 95.581939 
L 562.582993 94.608846 
L 565.136379 89.743378 
L 567.689765 93.635752 
L 570.243151 93.635752 
L 572.796537 86.824098 
L 575.349924 85.851004 
L 577.90331 80.985536 
L 580.456696 85.851004 
L 583.010082 83.904817 
L 588.116855 87.797191 
L 590.670241 85.851004 
L 593.223627 80.985536 
L 595.777013 82.931723 
L 600.883786 79.039349 
L 603.437172 75.146975 
L 605.990558 75.146975 
L 608.543944 71.254601 
L 611.097331 69.308414 
L 613.650717 69.308414 
L 616.204103 73.200788 
L 618.757489 81.95863 
L 623.864262 80.012443 
L 626.417648 84.87791 
L 628.971034 82.931723 
L 631.52442 77.093162 
L 634.077806 77.093162 
L 636.631193 81.95863 
L 639.184579 77.093162 
L 641.737965 78.066256 
L 644.291351 76.120068 
L 646.844738 80.012443 
L 649.398124 77.093162 
L 651.95151 77.093162 
L 654.504896 75.146975 
L 657.058282 74.173881 
L 659.611669 76.120068 
L 662.165055 75.146975 
L 667.271827 77.093162 
L 669.825213 73.200788 
L 672.3786 80.985536 
L 674.931986 79.039349 
L 680.038758 82.931723 
L 682.592144 76.120068 
L 685.145531 76.120068 
L 687.698917 74.173881 
L 690.252303 74.173881 
L 692.805689 73.200788 
L 695.359076 79.039349 
L 697.912462 73.200788 
L 700.465848 75.146975 
L 703.019234 74.173881 
L 705.57262 74.173881 
L 708.126007 75.146975 
L 710.679393 78.066256 
L 713.232779 74.173881 
L 715.786165 74.173881 
L 720.892938 72.227694 
L 723.446324 73.200788 
L 725.99971 73.200788 
L 728.553096 74.173881 
L 731.106482 73.200788 
L 733.659869 74.173881 
L 736.213255 74.173881 
L 738.766641 71.254601 
L 741.320027 75.146975 
L 743.873414 71.254601 
L 746.4268 74.173881 
L 748.980186 78.066256 
L 751.533572 70.281507 
L 754.086958 73.200788 
L 756.640345 72.227694 
L 759.193731 76.120068 
L 761.747117 72.227694 
L 764.300503 70.281507 
L 766.853889 75.146975 
L 769.407276 73.200788 
L 771.960662 75.146975 
L 774.514048 73.200788 
L 777.067434 74.173881 
L 779.620821 77.093162 
L 782.174207 74.173881 
L 784.727593 72.227694 
L 787.280979 76.120068 
L 789.834365 79.039349 
L 792.387752 77.093162 
L 794.941138 78.066256 
L 797.494524 71.254601 
L 800.04791 78.066256 
L 802.601296 73.200788 
L 805.154683 74.173881 
L 807.708069 76.120068 
L 810.261455 76.120068 
L 812.814841 74.173881 
L 815.368227 73.200788 
L 817.921614 75.146975 
L 820.475 72.227694 
L 823.028386 71.254601 
L 825.581772 76.120068 
L 828.135159 71.254601 
L 830.688545 73.200788 
L 833.241931 74.173881 
L 835.795317 67.362226 
L 838.348703 75.146975 
L 840.90209 74.173881 
L 846.008862 70.281507 
L 848.562248 72.227694 
L 851.115634 71.254601 
L 853.669021 71.254601 
L 856.222407 72.227694 
L 858.775793 68.33532 
L 861.329179 74.173881 
L 863.882565 75.146975 
L 866.435952 69.308414 
L 868.989338 76.120068 
L 871.542724 69.308414 
L 874.09611 69.308414 
L 879.202883 71.254601 
L 881.756269 68.33532 
L 886.863041 74.173881 
L 889.416428 73.200788 
L 891.969814 73.200788 
L 894.5232 71.254601 
L 897.076586 73.200788 
L 899.629972 71.254601 
L 902.183359 70.281507 
L 904.736745 71.254601 
L 907.290131 66.389133 
L 909.843517 71.254601 
L 914.95029 67.362226 
L 915.935987 69.991767 
L 915.935987 69.991767 
" style="fill:none;stroke:#32cd32;stroke-linecap:round;stroke-width:3;"/>
   </g>
   <g id="line2d_26">
    <path clip-path="url(#p926785e782)" d="M 514.068655 284.362089 
L 516.622041 188.998921 
L 519.175427 163.698488 
L 521.728813 119.909278 
L 524.282199 112.12453 
L 526.835586 96.555033 
L 531.942358 75.146975 
L 534.495744 69.308414 
L 537.04913 79.039349 
L 542.155903 79.039349 
L 544.709289 70.281507 
L 549.816062 66.389133 
L 557.47622 69.308414 
L 562.582993 65.416039 
L 565.136379 68.33532 
L 567.689765 58.604384 
L 570.243151 56.658197 
L 572.796537 55.685104 
L 575.349924 46.927262 
L 577.90331 50.819636 
L 580.456696 57.631291 
L 583.010082 62.496759 
L 585.563468 62.496759 
L 588.116855 58.604384 
L 590.670241 63.469852 
L 593.223627 60.550572 
L 598.3304 62.496759 
L 600.883786 58.604384 
L 603.437172 64.442946 
L 605.990558 62.496759 
L 608.543944 64.442946 
L 611.097331 63.469852 
L 613.650717 58.604384 
L 616.204103 61.523665 
L 618.757489 61.523665 
L 621.310875 64.442946 
L 623.864262 62.496759 
L 626.417648 66.389133 
L 628.971034 65.416039 
L 631.52442 66.389133 
L 634.077806 68.33532 
L 636.631193 64.442946 
L 639.184579 66.389133 
L 641.737965 63.469852 
L 644.291351 66.389133 
L 646.844738 65.416039 
L 649.398124 60.550572 
L 651.95151 64.442946 
L 654.504896 64.442946 
L 657.058282 67.362226 
L 659.611669 65.416039 
L 662.165055 65.416039 
L 667.271827 69.308414 
L 669.825213 68.33532 
L 672.3786 63.469852 
L 674.931986 62.496759 
L 677.485372 68.33532 
L 680.038758 63.469852 
L 682.592144 62.496759 
L 685.145531 65.416039 
L 687.698917 60.550572 
L 690.252303 58.604384 
L 692.805689 65.416039 
L 695.359076 59.577478 
L 697.912462 62.496759 
L 700.465848 60.550572 
L 703.019234 59.577478 
L 705.57262 62.496759 
L 708.126007 61.523665 
L 710.679393 63.469852 
L 715.786165 65.416039 
L 718.339551 67.362226 
L 720.892938 72.227694 
L 723.446324 66.389133 
L 725.99971 69.308414 
L 731.106482 65.416039 
L 733.659869 65.416039 
L 736.213255 67.362226 
L 738.766641 66.389133 
L 741.320027 66.389133 
L 743.873414 69.308414 
L 746.4268 60.550572 
L 748.980186 64.442946 
L 751.533572 63.469852 
L 754.086958 59.577478 
L 756.640345 66.389133 
L 759.193731 62.496759 
L 761.747117 60.550572 
L 764.300503 64.442946 
L 766.853889 67.362226 
L 769.407276 66.389133 
L 771.960662 63.469852 
L 774.514048 61.523665 
L 777.067434 63.469852 
L 779.620821 62.496759 
L 782.174207 66.389133 
L 787.280979 68.33532 
L 789.834365 70.281507 
L 792.387752 71.254601 
L 794.941138 70.281507 
L 797.494524 72.227694 
L 800.04791 62.496759 
L 802.601296 70.281507 
L 805.154683 64.442946 
L 807.708069 65.416039 
L 810.261455 65.416039 
L 812.814841 72.227694 
L 815.368227 68.33532 
L 817.921614 65.416039 
L 820.475 69.308414 
L 823.028386 65.416039 
L 825.581772 69.308414 
L 828.135159 69.308414 
L 830.688545 64.442946 
L 833.241931 69.308414 
L 835.795317 68.33532 
L 843.455476 68.33532 
L 846.008862 66.389133 
L 848.562248 71.254601 
L 851.115634 65.416039 
L 853.669021 67.362226 
L 856.222407 70.281507 
L 858.775793 66.389133 
L 861.329179 73.200788 
L 863.882565 67.362226 
L 866.435952 70.281507 
L 868.989338 68.33532 
L 871.542724 71.254601 
L 874.09611 72.227694 
L 876.649497 67.362226 
L 879.202883 70.281507 
L 881.756269 72.227694 
L 886.863041 68.33532 
L 889.416428 74.173881 
L 891.969814 66.389133 
L 894.5232 65.416039 
L 897.076586 69.308414 
L 902.183359 69.308414 
L 904.736745 72.227694 
L 907.290131 69.308414 
L 909.843517 68.33532 
L 912.396903 68.33532 
L 914.95029 72.227694 
L 915.935987 71.100748 
L 915.935987 71.100748 
" style="fill:none;stroke:#ffa500;stroke-linecap:round;stroke-width:3;"/>
   </g>
   <g id="line2d_27">
    <path clip-path="url(#p926785e782)" d="M 514.068655 264.900218 
L 516.622041 190.945108 
L 519.175427 145.209711 
L 521.728813 86.824098 
L 524.282199 61.523665 
L 526.835586 55.685104 
L 529.388972 63.469852 
L 531.942358 58.604384 
L 534.495744 51.79273 
L 537.04913 30.384671 
L 539.602517 34.277046 
L 542.155903 33.303952 
L 544.709289 40.115607 
L 547.262675 43.034888 
L 552.369448 39.142513 
L 554.922834 33.303952 
L 557.47622 38.16942 
L 560.029606 30.384671 
L 562.582993 27.465391 
L 565.136379 29.411578 
L 567.689765 26.492297 
L 570.243151 30.384671 
L 572.796537 33.303952 
L 575.349924 35.250139 
L 577.90331 35.250139 
L 580.456696 38.16942 
L 583.010082 36.223233 
L 585.563468 32.330859 
L 588.116855 33.303952 
L 593.223627 37.196326 
L 595.777013 34.277046 
L 598.3304 37.196326 
L 600.883786 35.250139 
L 603.437172 39.142513 
L 605.990558 33.303952 
L 608.543944 37.196326 
L 611.097331 36.223233 
L 613.650717 31.357765 
L 616.204103 34.277046 
L 621.310875 34.277046 
L 623.864262 36.223233 
L 626.417648 32.330859 
L 628.971034 39.142513 
L 631.52442 38.16942 
L 634.077806 39.142513 
L 636.631193 37.196326 
L 641.737965 39.142513 
L 649.398124 33.303952 
L 651.95151 33.303952 
L 654.504896 32.330859 
L 657.058282 36.223233 
L 659.611669 34.277046 
L 662.165055 37.196326 
L 664.718441 35.250139 
L 667.271827 32.330859 
L 669.825213 35.250139 
L 672.3786 36.223233 
L 674.931986 35.250139 
L 680.038758 37.196326 
L 682.592144 39.142513 
L 685.145531 34.277046 
L 687.698917 34.277046 
L 690.252303 35.250139 
L 692.805689 32.330859 
L 695.359076 35.250139 
L 697.912462 37.196326 
L 700.465848 34.277046 
L 703.019234 33.303952 
L 705.57262 33.303952 
L 708.126007 35.250139 
L 710.679393 31.357765 
L 713.232779 32.330859 
L 715.786165 31.357765 
L 718.339551 33.303952 
L 720.892938 33.303952 
L 723.446324 35.250139 
L 725.99971 33.303952 
L 728.553096 32.330859 
L 731.106482 32.330859 
L 733.659869 36.223233 
L 736.213255 31.357765 
L 738.766641 35.250139 
L 741.320027 35.250139 
L 743.873414 36.223233 
L 746.4268 34.277046 
L 748.980186 36.223233 
L 751.533572 37.196326 
L 754.086958 37.196326 
L 756.640345 38.16942 
L 759.193731 34.277046 
L 764.300503 36.223233 
L 766.853889 29.411578 
L 769.407276 35.250139 
L 774.514048 33.303952 
L 777.067434 29.411578 
L 779.620821 33.303952 
L 782.174207 31.357765 
L 784.727593 31.357765 
L 787.280979 32.330859 
L 789.834365 29.411578 
L 792.387752 32.330859 
L 794.941138 30.384671 
L 797.494524 30.384671 
L 800.04791 34.277046 
L 802.601296 29.411578 
L 805.154683 33.303952 
L 807.708069 36.223233 
L 810.261455 30.384671 
L 812.814841 36.223233 
L 815.368227 30.384671 
L 817.921614 31.357765 
L 820.475 31.357765 
L 823.028386 32.330859 
L 825.581772 34.277046 
L 828.135159 33.303952 
L 833.241931 33.303952 
L 835.795317 31.357765 
L 838.348703 32.330859 
L 840.90209 30.384671 
L 843.455476 29.411578 
L 846.008862 32.330859 
L 851.115634 34.277046 
L 853.669021 28.438484 
L 856.222407 32.330859 
L 858.775793 32.330859 
L 861.329179 33.303952 
L 863.882565 31.357765 
L 866.435952 32.330859 
L 868.989338 29.411578 
L 871.542724 33.303952 
L 874.09611 34.277046 
L 876.649497 33.303952 
L 879.202883 35.250139 
L 881.756269 33.303952 
L 884.309655 33.303952 
L 886.863041 36.223233 
L 889.416428 34.277046 
L 891.969814 33.303952 
L 894.5232 35.250139 
L 897.076586 32.330859 
L 899.629972 36.223233 
L 902.183359 35.250139 
L 904.736745 32.330859 
L 907.290131 33.303952 
L 909.843517 35.250139 
L 912.396903 36.223233 
L 914.95029 39.142513 
L 915.935987 37.639919 
L 915.935987 37.639919 
" style="fill:none;stroke:#000000;stroke-linecap:round;stroke-width:3;"/>
   </g>
   <g id="patch_6">
    <path d="M 514.068655 333.98986 
L 514.068655 12.771678 
" style="fill:none;stroke:#262626;stroke-linecap:square;stroke-linejoin:miter;"/>
   </g>
   <g id="patch_7">
    <path d="M 514.068655 333.98986 
L 894.5232 333.98986 
" style="fill:none;stroke:#262626;stroke-linecap:square;stroke-linejoin:miter;"/>
   </g>
   <g id="legend_1">
    <g id="text_24">
     <!-- Number of filters -->
     <defs>
      <path d="M 6.390625 0 
L 6.390625 71.578125 
L 15.1875 71.578125 
L 15.1875 0 
z
" id="ArialMT-6c"/>
     </defs>
     <g style="fill:#262626;" transform="translate(412.6488 430.071142)scale(0.1728 -0.1728)">
      <use xlink:href="#ArialMT-4e"/>
      <use x="72.216797" xlink:href="#ArialMT-75"/>
      <use x="127.832031" xlink:href="#ArialMT-6d"/>
      <use x="211.132812" xlink:href="#ArialMT-62"/>
      <use x="266.748047" xlink:href="#ArialMT-65"/>
      <use x="322.363281" xlink:href="#ArialMT-72"/>
      <use x="355.664062" xlink:href="#ArialMT-20"/>
      <use x="383.447266" xlink:href="#ArialMT-6f"/>
      <use x="439.0625" xlink:href="#ArialMT-66"/>
      <use x="466.845703" xlink:href="#ArialMT-20"/>
      <use x="494.628906" xlink:href="#ArialMT-66"/>
      <use x="522.412109" xlink:href="#ArialMT-69"/>
      <use x="544.628906" xlink:href="#ArialMT-6c"/>
      <use x="566.845703" xlink:href="#ArialMT-74"/>
      <use x="594.628906" xlink:href="#ArialMT-65"/>
      <use x="650.244141" xlink:href="#ArialMT-72"/>
      <use x="683.544922" xlink:href="#ArialMT-73"/>
     </g>
    </g>
    <g id="line2d_28">
     <path d="M 307.28195 447.358042 
L 339.28195 447.358042 
" style="fill:none;stroke:#1e90ff;stroke-linecap:round;stroke-width:3;"/>
    </g>
    <g id="line2d_29"/>
    <g id="text_25">
     <!-- 7 -->
     <defs>
      <path d="M 4.734375 62.203125 
L 4.734375 70.65625 
L 51.078125 70.65625 
L 51.078125 63.8125 
Q 44.234375 56.546875 37.515625 44.484375 
Q 30.8125 32.421875 27.15625 19.671875 
Q 24.515625 10.6875 23.78125 0 
L 14.75 0 
Q 14.890625 8.453125 18.0625 20.40625 
Q 21.234375 32.375 27.171875 43.484375 
Q 33.109375 54.59375 39.796875 62.203125 
z
" id="ArialMT-37"/>
     </defs>
     <g style="fill:#262626;" transform="translate(352.08195 452.958042)scale(0.16 -0.16)">
      <use xlink:href="#ArialMT-37"/>
     </g>
    </g>
    <g id="line2d_30">
     <path d="M 392.97945 447.358042 
L 424.97945 447.358042 
" style="fill:none;stroke:#32cd32;stroke-linecap:round;stroke-width:3;"/>
    </g>
    <g id="line2d_31"/>
    <g id="text_26">
     <!-- 10 -->
     <g style="fill:#262626;" transform="translate(437.77945 452.958042)scale(0.16 -0.16)">
      <use xlink:href="#ArialMT-31"/>
      <use x="55.615234" xlink:href="#ArialMT-30"/>
     </g>
    </g>
    <g id="line2d_32">
     <path d="M 487.57445 447.358042 
L 519.57445 447.358042 
" style="fill:none;stroke:#ffa500;stroke-linecap:round;stroke-width:3;"/>
    </g>
    <g id="line2d_33"/>
    <g id="text_27">
     <!-- 13 -->
     <g style="fill:#262626;" transform="translate(532.37445 452.958042)scale(0.16 -0.16)">
      <use xlink:href="#ArialMT-31"/>
      <use x="55.615234" xlink:href="#ArialMT-33"/>
     </g>
    </g>
    <g id="line2d_34">
     <path d="M 582.16945 447.358042 
L 614.16945 447.358042 
" style="fill:none;stroke:#000000;stroke-linecap:round;stroke-width:3;"/>
    </g>
    <g id="line2d_35"/>
    <g id="text_28">
     <!-- 32 -->
     <g style="fill:#262626;" transform="translate(626.96945 452.958042)scale(0.16 -0.16)">
      <use xlink:href="#ArialMT-33"/>
      <use x="55.615234" xlink:href="#ArialMT-32"/>
     </g>
    </g>
   </g>
  </g>
 </g>
 <defs>
  <clipPath id="p1af11b79df">
   <rect height="321.218182" width="380.454545" x="57.5232" y="12.771678"/>
  </clipPath>
  <clipPath id="p926785e782">
   <rect height="321.218182" width="380.454545" x="514.068655" y="12.771678"/>
  </clipPath>
 </defs>
</svg>
